…
    ## Number of missing ZIP codes: 171

``` r
# Get details about missing ZIP codes
missing_zip_details = zip_codes |>
  filter(zip_code %in% missing_zips) |>
  distinct(zip_code, borough, neighborhood)

print(missing_zip_details)
```

    ## # A tibble: 171 × 3
    ##    zip_code borough      neighborhood              
    ##       <dbl> <chr>        <chr>                     
    ##  1    10464 Bronx County Southeast Bronx           
    ##  2    10474 Bronx County Hunts Point and Mott Haven
    ##  3    10475 Bronx County Northeast Bronx           
    ##  4    10499 Bronx County <NA>                      
    ##  5    10550 Bronx County <NA>                      
    ##  6    10704 Bronx County <NA>                      
    ##  7    10705 Bronx County <NA>                      
    ##  8    10803 Bronx County <NA>                      
    ##  9    11202 Kings County <NA>                      
    ## 10    11224 Kings County Southern Brooklyn         
    ## # ℹ 161 more rows
…
